{
  "resolution": "main",
  "tree": {
    "src": "https://raw.githubusercontent.com/DefinitelyTyped/DefinitelyTyped/50387d40462301d54cda62e24d3b2ee46540f24a/status-bar/index.d.ts",
    "raw": "registry:dt/status-bar#0.0.0+20160510010627",
    "typings": "https://raw.githubusercontent.com/DefinitelyTyped/DefinitelyTyped/50387d40462301d54cda62e24d3b2ee46540f24a/status-bar/index.d.ts"
  }
}
